{
  "title": "Future Tecnologic",
  "text": "Beautifully designed template using React.js, ant design and styled-components! Save weeks of time and build your landing page in minutes.",
  "button": [
    {
      "title": "Explore"
    },
    {
      "title": "Learn More",
      "color": "#fff"
    }
  ]
}
